<?xml version="1.0" encoding="utf-8"?>
<!-- Generator: Adobe Illustrator 21.1.0, SVG Export Plug-In . SVG Version: 6.00 Build 0)  -->
<svg version="1.1"
	 id="svg1936" inkscape:version="0.91 r13725" sodipodi:docname="Amazon.com-Logo.svg" xmlns:cc="http://creativecommons.org/ns#" xmlns:dc="http://purl.org/dc/elements/1.1/" xmlns:inkscape="http://www.inkscape.org/namespaces/inkscape" xmlns:rdf="http://www.w3.org/1999/02/22-rdf-syntax-ns#" xmlns:sodipodi="http://sodipodi.sourceforge.net/DTD/sodipodi-0.dtd" xmlns:svg="http://www.w3.org/2000/svg"
	 xmlns="http://www.w3.org/2000/svg" xmlns:xlink="http://www.w3.org/1999/xlink" x="0px" y="0px" viewBox="0 0 1000 400"
	 style="enable-background:new 0 0 1000 400;" xml:space="preserve">
<style type="text/css">
	.st0{fill:#FF9900;}
	.st1{fill:#221F1F;}
</style>
<sodipodi:namedview  bordercolor="#666666" borderopacity="1" gridtolerance="10" guidetolerance="10" id="namedview19" inkscape:current-layer="svg1936" inkscape:cx="515.8293" inkscape:cy="60.382118" inkscape:pageopacity="0" inkscape:pageshadow="2" inkscape:window-height="706" inkscape:window-maximized="1" inkscape:window-width="1280" inkscape:window-x="-8" inkscape:window-y="-8" inkscape:zoom="0.72245926" objecttolerance="10" pagecolor="#ffffff" showgrid="false">
	</sodipodi:namedview>
<g id="layer1" transform="translate(164.07345,-644.18026)">
	<g id="g1967" transform="translate(7.081691,7.081144)">
		<path id="path8" inkscape:connector-curvature="0" class="st0" d="M231.3,892.2C193.6,920,139,934.8,91.9,934.8
			c-66,0-125.4-24.4-170.3-65c-3.5-3.2-0.4-7.5,3.9-5.1C-26,893,33.9,910,95.9,910c41.8,0,87.7-8.6,130-26.6
			C232.2,880.7,237.5,887.6,231.3,892.2"/>
		<path id="path10" inkscape:connector-curvature="0" class="st0" d="M247,874.3c-4.8-6.2-31.9-2.9-44-1.5c-3.7,0.5-4.3-2.8-0.9-5.1
			c21.5-15.2,56.9-10.8,61-5.7c4.1,5.1-1.1,40.6-21.3,57.5c-3.1,2.6-6.1,1.2-4.7-2.2C241.6,905.9,251.8,880.5,247,874.3"/>
		<path id="path12" inkscape:connector-curvature="0" class="st1" d="M203.8,760.7V746c0-2.2,1.7-3.7,3.7-3.7h66
			c2.1,0,3.8,1.5,3.8,3.7v12.6c0,2.1-1.8,4.9-5,9.3l-34.2,48.8c12.7-0.3,26.1,1.6,37.6,8.1c2.6,1.5,3.3,3.6,3.5,5.7v15.7
			c0,2.1-2.4,4.7-4.9,3.4c-20.3-10.6-47.3-11.8-69.7,0.1c-2.3,1.2-4.7-1.2-4.7-3.4v-14.9c0-2.4,0-6.5,2.4-10.1l39.6-56.8h-34.5
			C205.5,764.4,203.8,762.9,203.8,760.7"/>
		<path id="path14" inkscape:connector-curvature="0" class="st1" d="M-36.9,852.7H-57c-1.9-0.1-3.4-1.6-3.6-3.4v-103
			c0-2.1,1.7-3.7,3.9-3.7H-38c1.9,0.1,3.5,1.6,3.6,3.4v13.5h0.4c4.9-13,14.1-19.1,26.4-19.1c12.6,0,20.4,6.1,26.1,19.1
			c4.9-13,15.9-19.1,27.7-19.1c8.4,0,17.6,3.5,23.2,11.3c6.4,8.7,5.1,21.3,5.1,32.3l0,65c0,2.1-1.7,3.7-3.9,3.7h-20
			c-2-0.1-3.6-1.8-3.6-3.7v-54.6c0-4.3,0.4-15.2-0.6-19.3c-1.5-6.9-6-8.9-11.8-8.9c-4.9,0-9.9,3.2-12,8.4
			c-2.1,5.2-1.9,13.9-1.9,19.7v54.6c0,2.1-1.7,3.7-3.9,3.7h-20c-2-0.1-3.6-1.8-3.6-3.7l0-54.6c0-11.5,1.9-28.4-12.4-28.4
			c-14.4,0-13.9,16.5-13.9,28.4v54.6C-33,851-34.8,852.7-36.9,852.7"/>
		<path id="path16" inkscape:connector-curvature="0" class="st1" d="M334.2,740.3c29.8,0,45.9,25.6,45.9,58.1
			c0,31.4-17.8,56.4-45.9,56.4c-29.3,0-45.2-25.6-45.2-57.5C289,765.3,305.1,740.3,334.2,740.3 M334.4,761.4
			c-14.8,0-15.7,20.2-15.7,32.7c0,12.6-0.2,39.5,15.6,39.5c15.6,0,16.3-21.7,16.3-34.9c0-8.7-0.4-19.1-3-27.3
			C345.2,764.2,340.7,761.4,334.4,761.4"/>
		<path id="path18" inkscape:connector-curvature="0" class="st1" d="M418.7,852.7h-20c-2-0.1-3.6-1.8-3.6-3.7l0-103.1
			c0.2-1.9,1.8-3.4,3.9-3.4h18.6c1.8,0.1,3.2,1.3,3.6,2.9v15.8h0.4c5.6-14.1,13.5-20.8,27.4-20.8c9,0,17.8,3.2,23.4,12.1
			c5.3,8.2,5.3,22.1,5.3,32.1v64.9c-0.2,1.8-1.9,3.2-3.9,3.2h-20.1c-1.8-0.1-3.4-1.5-3.6-3.2v-56c0-11.3,1.3-27.8-12.6-27.8
			c-4.9,0-9.4,3.3-11.6,8.2c-2.8,6.3-3.2,12.6-3.2,19.5v55.5C422.6,851,420.9,852.7,418.7,852.7"/>
		<path id="path20" inkscape:connector-curvature="0" class="st1" d="M490.1,844.5c0-5.2,4.4-9.4,9.9-9.4c5.5,0,9.9,4.2,9.9,9.4
			c0,5.2-4.4,9.4-9.9,9.4C494.6,853.9,490.1,849.7,490.1,844.5"/>
		<path id="path22" inkscape:connector-curvature="0" class="st1" d="M702.9,852.7c-2.1-0.1-3.7-1.7-3.7-3.7v-103
			c0.1-1.8,1.7-3.3,3.6-3.4h7.4c2,0,3.7,1.5,3.8,3.4v15c5.3-11.9,15-21.2,27.4-21.2h0.8h0.7c13.1,0,22.7,9.7,26.2,23.7
			c5.6-13.9,16-23.7,29.8-23.7h0.7h0.8c9.7,0,19.1,6.3,24,15.8c4.7,9.1,4.5,21.3,4.5,31.5l0,62c0,2-1.6,3.6-3.6,3.7h-8.8
			c-1.9-0.1-3.5-1.4-3.7-3.2V787c0-7.4,0.4-15.2-2.6-21.9c-3-6.9-8.9-11.2-15.2-11.5c-7,0.3-13.4,5.5-17.6,12.3
			c-5.4,8.9-5.2,16.9-5.2,27.3v56.3c-0.3,1.7-1.8,3-3.6,3.2h-8.8c-2.1-0.1-3.8-1.7-3.8-3.7l-0.1-66.1c0-6.1-0.4-13.2-3.2-18.7
			c-3.2-6.2-9.1-10.3-15.2-10.6c-6.3,0.4-12.7,5.2-16.5,10.8c-4.9,7.2-5.8,16-5.8,25.2V849c0,2-1.6,3.6-3.6,3.7H702.9"/>
		<path id="path24" inkscape:connector-curvature="0" class="st1" d="M642.4,854.8c-28.5,0-41.3-29.1-41.3-58.1
			c0-30.6,15-57,43.7-57h0.7h0.8c27.9,0,41.8,28.2,41.8,57.2c0,30.8-15.4,57.9-44.3,57.9h-0.7L642.4,854.8 M644.5,840.8
			c9.4-0.3,16.8-6.1,21.2-15.8c3.9-8.7,4.7-18.7,4.7-28.2c0-10.4-1.1-21.2-6-30.1c-4.4-7.8-11.9-12.7-19.9-13
			c-8.9,0.3-16.8,6.3-20.8,15.6c-3.6,8-4.7,18.7-4.7,27.5c0,10,1.3,21.5,5.4,30.2C628.4,835.1,636.1,840.4,644.5,840.8"/>
		<path id="path26" inkscape:connector-curvature="0" class="st1" d="M553.3,840.3c12.8-0.4,19.5-10.6,22.3-23.9
			c0.6-1.7,1.8-2.9,3.7-2.9l8.4,0c2,0.1,3.8,1.6,3.7,3.5c-3.9,22.6-17.5,38-37,38h-0.8h-0.7c-28.3,0-40.5-28.4-40.5-57.2
			c0-28.6,12.4-57.9,40.7-57.9h0.8h0.8c19.7,0,33.7,15.1,36.7,37.8c0,1.7-1.6,3.2-3.4,3.4l-8.8-0.1c-1.9-0.3-3.1-1.8-3.4-3.6
			c-2.1-12.6-9.4-22.7-21.5-23.1c-19.2,0.6-24.7,24.3-24.7,42.5C529.5,814.1,534.1,839.7,553.3,840.3"/>
		<path class="st1" d="M187,833.8c-3.7-5.1-7.6-9.2-7.6-18.6v-31.3c0-13.2,0.9-25.4-8.8-34.5c-7.7-7.4-20.5-10-30.2-10
			c-19.1,0-40.4,7.1-44.9,30.7c-0.5,2.5,1.4,3.8,3,4.2l19.5,2.1c1.8-0.1,3.2-1.9,3.5-3.7c1.7-8.1,8.5-12.1,16.1-12.1
			c4.2,0,8.8,1.5,11.3,5.2c2.8,4.1,2.5,9.8,2.5,14.5v2.6c-11.6,1.3-26.9,2.2-37.8,7c-12.6,5.4-21.4,16.5-21.4,32.8
			c0,20.9,13.1,31.3,30,31.3c14.3,0,22.1-3.4,33.1-14.6c3.6,5.3,4.9,7.9,11.5,13.4c1.5,0.8,3.4,0.7,4.7-0.5v0h0l0,0l0,0.1
			c4-3.6,11.3-9.9,15.4-13.3C188.5,837.8,188.2,835.6,187,833.8z M147.5,824.7c-3.2,5.6-8.3,9.1-13.9,9.1c-7.7,0-12.2-5.9-12.2-14.5
			c0-17.1,15.3-20.2,29.9-20.2v4.3C151.2,811.3,151.4,817.8,147.5,824.7z"/>
		<path class="st1" d="M-76.2,833.8c-3.7-5.1-7.6-9.2-7.6-18.6v-31.3c0-13.2,0.9-25.4-8.8-34.5c-7.7-7.4-20.5-10-30.2-10
			c-19.1,0-40.4,7.1-44.9,30.7c-0.5,2.5,1.4,3.8,3,4.2l19.5,2.1c1.8-0.1,3.1-1.9,3.5-3.7c1.7-8.1,8.5-12.1,16.2-12.1
			c4.1,0,8.8,1.5,11.3,5.2c2.8,4.1,2.4,9.8,2.4,14.5v2.6c-11.6,1.3-26.9,2.2-37.8,7c-12.6,5.4-21.4,16.5-21.4,32.8
			c0,20.9,13.2,31.3,30,31.3c14.3,0,22.1-3.4,33.1-14.6c3.7,5.3,4.9,7.9,11.5,13.4c1.5,0.8,3.4,0.7,4.7-0.5l0,0h0h0l0.1,0.1
			c4-3.6,11.3-9.9,15.4-13.3C-74.7,837.8-74.9,835.6-76.2,833.8z M-115.8,824.7c-3.2,5.6-8.2,9.1-13.9,9.1
			c-7.7,0-12.2-5.9-12.2-14.5c0-17.1,15.3-20.2,29.8-20.2v4.3C-112,811.3-111.8,817.8-115.8,824.7z"/>
	</g>
</g>
</svg>
